Mini Literate Analysis
…
Setup

These are the packages that we will need for our analysis.

library(readr)

Read data

We read in the data as a csv.

data <- read_csv("data/BGchem2008data.csv", show_col_types = FALSE)
print(data)

# A tibble: 70 × 19
   Date       Time                Station  Latitude Longitude Target_D…¹ CTD_D…²
   <date>     <dttm>              <chr>       <dbl>     <dbl>      <dbl>   <dbl>
 1 2008-03-21 1899-12-31 21:56:46 73N,140W     73.0     -140.         20    15.1
 2 2008-03-21 1899-12-31 21:56:46 73N,140W     73.0     -140.         60    60.6
 3 2008-03-21 1899-12-31 21:56:46 73N,140W     73.0     -140.         85    85.7
 4 2008-03-21 1899-12-31 21:56:46 73N,140W     73.0     -140.        190   191. 
 5 2008-03-21 1899-12-31 21:56:46 73N,140W     73.0     -140.        310   309. 
 6 2008-03-22 1899-12-31 21:45:27 72N,140W     72.1     -140.         20    21.0
 7 2008-03-22 1899-12-31 21:45:27 72N,140W     72.1     -140.         60    61.9
 8 2008-03-22 1899-12-31 21:45:27 72N,140W     72.1     -140.         85    85.8
 9 2008-03-22 1899-12-31 21:45:27 72N,140W     72.1     -140.        190   195. 
10 2008-03-22 1899-12-31 21:45:27 72N,140W     72.1     -140.        310   318. 
# … with 60 more rows, 12 more variables: CTD_Salinity <dbl>,
#   CTD_Temperature <dbl>, Bottle_Salinity <dbl>, d18O <dbl>, Ba <dbl>,
#   Si <dbl>, NO3 <dbl>, NO2 <dbl>, NH4 <dbl>, P <dbl>, TA <dbl>, O2 <dbl>, and
#   abbreviated variable names ¹​Target_Depth, ²​CTD_Depth
…
